<svg width="29" height="30" viewBox="0 0 29 30" fill="none" xmlns="http://www.w3.org/2000/svg">
<path d="M28.5017 29.0287H25.1149V28.0336C25.1149 25.7548 24.4914 23.9961 23.2617 22.8061C21.6945 21.2897 19.726 21.2873 19.647 21.2861H17.1508V19.7362C18.7454 19.0922 19.7535 18.0202 20.3678 17.0906C21.3267 15.6395 21.543 14.2431 21.5516 14.1843C21.5551 14.1612 21.5568 14.138 21.5568 14.1147V14.0107C21.9068 13.9266 22.2113 13.7506 22.4531 13.4897C23.1585 12.7284 23.1176 11.5273 23.0672 11.0463C23.0289 10.6802 22.8589 10.3729 22.5756 10.1578C22.52 10.1156 22.4618 10.0782 22.4018 10.0453V7.99988C22.4018 5.45257 21.2121 3.69995 20.214 2.67824C19.1371 1.57585 18.0608 1.07345 18.0155 1.0526C17.8573 0.979816 17.6716 0.993219 17.5263 1.08769L16.9764 1.44505C14.9266 -0.24683 12.8876 0.00828924 12.7978 0.0205272C12.5517 0.0541978 12.3688 0.25933 12.3688 0.501434V0.99704C10.5211 0.7978 9.2895 1.38354 9.23289 1.41112C9.11257 1.46972 9.02175 1.5732 8.98096 1.69804C8.9401 1.82288 8.95279 1.95847 9.01604 2.07411L9.2808 2.558C9.35095 2.84051 9.17336 3.03223 8.51915 3.59589C8.21898 3.85457 7.87875 4.1477 7.5265 4.5254C6.44808 5.68159 6.61251 9.00042 6.68878 9.99428C6.59258 10.0382 6.49917 10.0919 6.4124 10.1578C6.12911 10.373 5.95916 10.6802 5.92089 11.0464C5.87053 11.5275 5.8296 12.7285 6.53504 13.4897C6.77954 13.7535 7.08821 13.9303 7.44312 14.0133V14.1147C7.44312 14.138 7.44485 14.1613 7.4483 14.1844C7.457 14.2431 7.67333 15.6396 8.63216 17.0907C9.24645 18.0203 10.2546 19.0923 11.8491 19.7362V21.2861H9.35647C9.27103 21.2862 7.30559 21.2894 5.73819 22.8061C4.50848 23.996 3.88496 25.7548 3.88496 28.0336V29.0287H0.498285C0.223032 29.0287 -2.73716e-08 29.2462 -2.73716e-08 29.5144C-2.73716e-08 29.7826 0.223032 30 0.498285 30H28.5017C28.777 30 29 29.7826 29 29.5144C29 29.2462 28.777 29.0287 28.5017 29.0287ZM19.6506 22.2575C19.6508 22.2575 19.651 22.2575 19.6512 22.2575C19.6905 22.2575 21.2927 22.2696 22.5596 23.4954C23.5939 24.4963 24.1184 26.0232 24.1184 28.0337V29.0288H15.2281L17.6946 27.8043C17.8512 27.7266 17.9541 27.5742 17.9656 27.4034L18.0494 26.1624L19.5417 25.3432C19.7377 25.2356 19.8354 25.0134 19.7803 24.8009L19.1203 22.2575H19.6506ZM10.6311 23.1189L13.062 27.6139L11.9345 27.0543L11.8749 25.8449C11.8666 25.6781 11.771 25.5271 11.6217 25.4451L10.2262 24.6791L10.6311 23.1189ZM18.7208 24.6791L17.3253 25.4451C17.1787 25.5256 17.0837 25.6727 17.0726 25.8364L16.9899 27.0641L15.886 27.6121L18.3159 23.1188L18.7208 24.6791ZM15.8622 8.36365C15.7045 8.40865 15.5797 8.52657 15.5286 8.67886C15.5182 8.70994 15.3947 9.08789 15.3573 9.58577C14.6594 9.43315 14.0524 9.48566 13.6163 9.57851C13.5783 9.08427 13.456 8.70981 13.4456 8.67886C13.3946 8.52657 13.2697 8.40865 13.112 8.36365C12.2771 8.12543 11.4181 8.00467 10.5589 8.00467C10.1885 8.00467 9.84758 8.02733 9.5413 8.06204C9.61518 7.97534 9.65657 7.86591 9.65657 7.75195V6.69145C10.117 6.47454 11.4786 5.99441 14.5079 5.99441C17.5373 5.99441 18.899 6.47454 19.3593 6.69145V7.75195C19.3593 7.86811 19.4022 7.97981 19.4788 8.06722C19.1609 8.02954 18.8044 8.00467 18.4153 8.00467C17.5561 8.00467 16.6972 8.12543 15.8622 8.36365ZM10.5589 8.97594C11.2311 8.97594 11.9037 9.05921 12.5622 9.22368C12.6493 9.63038 12.708 10.3004 12.4116 10.7193C12.211 11.0028 11.8604 11.1537 11.3397 11.1805C10.9463 11.2007 10.6628 11.2098 10.4203 11.2098C9.14426 11.2098 8.68737 11.1152 8.5709 9.23229C8.95352 9.12571 9.65252 8.97594 10.5589 8.97594ZM16.4119 9.22368C17.0704 9.05914 17.743 8.97594 18.4153 8.97594C19.3143 8.97594 20.018 9.12675 20.4031 9.23326C20.2866 11.1151 19.8296 11.2097 18.5537 11.2097C18.3112 11.2097 18.0277 11.2007 17.6344 11.1804C17.1137 11.1536 16.7631 11.0027 16.5625 10.7192C16.266 10.3002 16.325 9.62973 16.4119 9.22368ZM21.7135 12.8387C21.6656 12.8904 21.6133 12.933 21.5569 12.9688V10.7934C21.6118 10.7997 21.6667 10.8083 21.7191 10.8206C21.7477 10.8317 21.7774 10.8405 21.8083 10.8463C21.8677 10.8665 21.9214 10.892 21.9643 10.9248C22.0119 10.9612 22.0624 11.0159 22.076 11.1449C22.1351 11.7108 22.071 12.453 21.7135 12.8387ZM8.26396 5.17874C8.57967 4.84028 8.89824 4.56574 9.17928 4.32357C9.86777 3.73032 10.5181 3.16996 10.2222 2.23327C10.2129 2.20361 10.2006 2.17499 10.1856 2.1476L10.1655 2.11095C10.691 1.96747 11.6106 1.81711 12.771 2.03921C12.9171 2.06705 13.0686 2.02995 13.1836 1.93774C13.2986 1.84547 13.3653 1.70788 13.3653 1.56271V0.976514C13.5579 0.986032 13.8061 1.01232 14.0914 1.07442C15.0015 1.27236 15.8419 1.72193 16.5894 2.41075C16.7581 2.56628 17.0148 2.58752 17.2082 2.46197L17.8296 2.05825C18.6663 2.53404 21.4053 4.36954 21.4053 8.00014V8.50494C21.4047 8.50442 21.4042 8.50377 21.4037 8.50326L20.3559 7.54228V6.41276C20.3559 6.26707 20.2888 6.12915 20.1731 6.03688C20.043 5.93315 18.7784 5.0232 14.5079 5.0232C10.2374 5.0232 8.97292 5.93315 8.8427 6.03688C8.72703 6.12915 8.65993 6.26714 8.65993 6.41276V7.54209L7.62961 8.487C7.63346 7.13487 7.79072 5.68606 8.26396 5.17874ZM7.27457 12.8388C6.91706 12.453 6.85302 11.7109 6.91221 11.145C6.92577 11.0159 6.97626 10.9613 7.02389 10.9248C7.12475 10.8476 7.28473 10.8087 7.44312 10.792V12.976C7.38206 12.939 7.32579 12.894 7.27457 12.8388ZM9.48987 16.5948C8.71022 15.4285 8.47557 14.2739 8.43962 14.075V11.6807C8.88144 12.0395 9.51878 12.181 10.4203 12.181C10.681 12.181 10.9808 12.1715 11.3923 12.1504C12.2328 12.107 12.8528 11.8096 13.2349 11.2665C13.3804 11.0597 13.4761 10.8336 13.5369 10.604C13.8566 10.4967 14.5693 10.3345 15.4399 10.6143C15.5008 10.8403 15.5958 11.0627 15.7391 11.2665C16.1213 11.8096 16.7413 12.107 17.5818 12.1504C17.9931 12.1715 18.293 12.181 18.5537 12.181C18.5538 12.181 18.5536 12.181 18.5537 12.181C19.4725 12.181 20.1176 12.0347 20.5602 11.6603V14.0749C20.5238 14.2761 20.289 15.4296 19.51 16.5947C18.3932 18.2651 16.7232 19.1838 14.5461 19.3252H14.4536C12.2767 19.1838 10.6066 18.2652 9.48987 16.5948ZM14.4052 20.2955C14.4159 20.2961 14.4266 20.2965 14.4374 20.2965H14.5626C14.5734 20.2965 14.5841 20.2962 14.5948 20.2955C15.1596 20.2598 15.6777 20.1769 16.1543 20.058V21.7719C16.1543 21.7749 16.1547 21.7778 16.1548 21.7808C16.148 21.8128 16.1444 21.8459 16.1444 21.8799C16.1444 22.7636 15.4067 23.4825 14.5 23.4825C13.5933 23.4825 12.8557 22.7636 12.8557 21.8799C12.8557 21.8459 12.852 21.8128 12.8453 21.7808C12.8453 21.7778 12.8457 21.7749 12.8457 21.7719V20.058C13.3223 20.1769 13.8404 20.2598 14.4052 20.2955ZM11.8878 22.2575C12.0758 23.4983 13.1755 24.4538 14.5 24.4538C15.8245 24.4538 16.9242 23.4983 17.1122 22.2575H17.6552L14.4735 28.1409L11.2917 22.2575H11.8878ZM4.8816 28.0337C4.8816 22.3241 9.16865 22.2575 9.35295 22.2575H9.82665L9.16665 24.8009C9.11158 25.0134 9.20931 25.2355 9.40523 25.3432L10.8927 26.1597L10.953 27.3824C10.9616 27.5565 11.0653 27.7127 11.2246 27.7919L13.7163 29.0288H4.8816V28.0337Z" fill="#108B9B"/>
<path d="M0.594687 1.15918C0.923124 1.15918 1.18937 0.899685 1.18937 0.579587C1.18937 0.25949 0.923124 0 0.594687 0C0.266251 0 0 0.25949 0 0.579587C0 0.899685 0.266251 1.15918 0.594687 1.15918Z" transform="translate(10.3684 9.49803)" fill="#108B9B"/>
<path d="M0.594687 1.15918C0.923124 1.15918 1.18937 0.899685 1.18937 0.579587C1.18937 0.25949 0.923124 0 0.594687 0C0.266251 0 0 0.25949 0 0.579587C0 0.899685 0.266251 1.15918 0.594687 1.15918Z" transform="translate(17.4424 9.49803)" fill="#108B9B"/>
<path d="M1.19588 1.65116H1.4528C2.1122 1.65116 2.64869 1.12829 2.64869 0.485634C2.64869 0.217435 2.42565 4.26827e-07 2.1504 4.26827e-07C1.87515 4.26827e-07 1.65211 0.217435 1.65211 0.485634C1.65211 0.592733 1.56269 0.679888 1.4528 0.679888H1.19588C1.086 0.679888 0.99657 0.592733 0.99657 0.485634C0.99657 0.217435 0.773538 4.26827e-07 0.498285 4.26827e-07C0.223032 4.26827e-07 8.11011e-09 0.217435 8.11011e-09 0.485634C8.11011e-09 1.12829 0.536487 1.65116 1.19588 1.65116Z" transform="translate(13.1758 11.8407)" fill="#108B9B"/>
<path d="M-6.9747e-07 0.485633C-6.9747e-07 0.753833 0.223032 0.971267 0.498285 0.971267H2.03001C2.30527 0.971267 2.5283 0.753833 2.5283 0.485633C2.5283 0.217434 2.30527 -4.26827e-07 2.03001 -4.26827e-07H0.498285C0.223098 -4.26827e-07 -6.9747e-07 0.217434 -6.9747e-07 0.485633Z" transform="translate(19.3669 26.6864)" fill="#108B9B"/>
<path d="M6.28843 0.790582C6.46123 0.581759 6.42762 0.276069 6.21335 0.107715C5.99909 -0.0607023 5.68537 -0.0278736 5.5127 0.180819C5.50738 0.187295 4.90884 0.824382 3.32217 0.824382C1.67391 0.824382 0.870406 0.157769 0.831141 0.124293C0.627708 -0.0537732 0.314652 -0.0388804 0.130087 0.158481C-0.0553416 0.356685 -0.0407908 0.663863 0.162576 0.844519C0.206226 0.88337 1.25661 1.79565 3.32217 1.79565C5.39676 1.79565 6.20332 0.893471 6.28843 0.790582Z" transform="translate(11.3005 15.2921)" fill="#108B9B"/>
</svg>
