<svg width="18" height="18" viewBox="0 0 18 18" fill="none" xmlns="http://www.w3.org/2000/svg">
<path d="M16.418 2.10938H15.8906V1.58203C15.8906 0.709699 15.1809 0 14.3086 0C13.4363 0 12.7266 0.709699 12.7266 1.58203V2.10938H10.6172V1.58203C10.6172 0.709699 9.90749 0 9.03516 0C8.16282 0 7.45312 0.709699 7.45312 1.58203V2.10938H5.27344V1.58203C5.27344 0.709699 4.56374 0 3.69141 0C2.81907 0 2.10938 0.709699 2.10938 1.58203V2.10938H1.58203C0.709699 2.10938 0 2.81907 0 3.69141C0 3.76791 0 16.2157 0 16.418C0 17.2903 0.709699 18 1.58203 18H16.418C17.2903 18 18 17.2903 18 16.418C18 16.3208 18 3.86276 18 3.69141C18 2.81907 17.2903 2.10938 16.418 2.10938ZM13.7812 1.58203C13.7812 1.29125 14.0178 1.05469 14.3086 1.05469C14.5994 1.05469 14.8359 1.29125 14.8359 1.58203V3.69141C14.8359 3.98218 14.5994 4.21875 14.3086 4.21875C14.0178 4.21875 13.7812 3.98218 13.7812 3.69141V1.58203ZM8.50781 1.58203C8.50781 1.29125 8.74438 1.05469 9.03516 1.05469C9.32593 1.05469 9.5625 1.29125 9.5625 1.58203V3.69141C9.5625 3.98218 9.32593 4.21875 9.03516 4.21875C8.74438 4.21875 8.50781 3.98218 8.50781 3.69141V1.58203ZM3.16406 1.58203C3.16406 1.29125 3.40063 1.05469 3.69141 1.05469C3.98218 1.05469 4.21875 1.29125 4.21875 1.58203V3.69141C4.21875 3.98218 3.98218 4.21875 3.69141 4.21875C3.40063 4.21875 3.16406 3.98218 3.16406 3.69141V1.58203ZM16.9453 16.418C16.9453 16.7087 16.7087 16.9453 16.418 16.9453H1.58203C1.29125 16.9453 1.05469 16.7087 1.05469 16.418V7.45312H16.9453V16.418ZM16.9453 6.39844H1.05469V3.69141C1.05469 3.40063 1.29125 3.16406 1.58203 3.16406H2.10938V3.69141C2.10938 4.56374 2.81907 5.27344 3.69141 5.27344C4.56374 5.27344 5.27344 4.56374 5.27344 3.69141V3.16406H7.45312V3.69141C7.45312 4.56374 8.16282 5.27344 9.03516 5.27344C9.90749 5.27344 10.6172 4.56374 10.6172 3.69141V3.16406H12.7266V3.69141C12.7266 4.56374 13.4363 5.27344 14.3086 5.27344C15.1809 5.27344 15.8906 4.56374 15.8906 3.69141V3.16406H16.418C16.7087 3.16406 16.9453 3.40063 16.9453 3.69141V6.39844Z" fill="#16957C"/>
<path d="M13.2539 0H0.527344C0.236109 0 0 0.236109 0 0.527344V6.85547C0 7.1467 0.236109 7.38281 0.527344 7.38281H13.2539C13.5451 7.38281 13.7812 7.1467 13.7812 6.85547V0.527344C13.7812 0.236109 13.5451 0 13.2539 0ZM3.16406 6.32812H1.05469V4.21875H3.16406V6.32812ZM3.16406 3.16406H1.05469V1.05469H3.16406V3.16406ZM6.39844 6.32812H4.21875V4.21875H6.39844V6.32812ZM6.39844 3.16406H4.21875V1.05469H6.39844V3.16406ZM9.5625 6.32812H7.45312V4.21875H9.5625V6.32812ZM9.5625 3.16406H7.45312V1.05469H9.5625V3.16406ZM12.7266 6.32812H10.6172V4.21875H12.7266V6.32812ZM12.7266 3.16406H10.6172V1.05469H12.7266V3.16406Z" transform="translate(2.10938 8.50781)" fill="#16957C"/>
</svg>
